0 info it worked if it ends with ok
1 verbose cli [ 'node',
1 verbose cli   '/Users/kristianmandrup/.nvm/v0.10.32/bin/npm',
1 verbose cli   'link',
1 verbose cli   'access-request' ]
2 info using npm@2.0.0
3 info using node@v0.10.32
4 verbose install where, what [ '/Users/kristianmandrup/npm/lib', [ 'access-request' ] ]
5 verbose cache add [ 'access-request', null ]
6 verbose cache add spec="access-request" args=["access-request",null]
7 verbose parsed spec { raw: 'access-request',
7 verbose parsed spec   scope: null,
7 verbose parsed spec   name: 'access-request',
7 verbose parsed spec   rawSpec: '',
7 verbose parsed spec   spec: '*',
7 verbose parsed spec   type: 'range' }
8 verbose parsed spec { raw: 'access-request',
8 verbose parsed spec   scope: null,
8 verbose parsed spec   name: 'access-request',
8 verbose parsed spec   rawSpec: '',
8 verbose parsed spec   spec: '*',
8 verbose parsed spec   type: 'range' }
9 verbose addNamed [ 'access-request', '*' ]
10 verbose addNamed [ null, '*' ]
11 silly lockFile a95082a9-access-request access-request@*
12 verbose lock access-request@* /Users/kristianmandrup/.npm/a95082a9-access-request.lock
13 silly addNameRange { name: 'access-request', range: '*', hasData: false }
14 verbose mapToRegistry name access-request
15 verbose mapToRegistry uri https://registry.npmjs.org/access-request
16 verbose request on initialization, where is /access-request
17 verbose request after pass 1, where is /access-request
18 verbose request url raw /access-request
19 verbose request resolving registry [ 'https://registry.npmjs.org/', './access-request' ]
20 verbose request after pass 2, where is https://registry.npmjs.org/access-request
21 verbose request no auth needed
22 info attempt registry request try #1 at 13:39:14
23 verbose request id 55b270b97312f483
24 http request GET https://registry.npmjs.org/access-request
25 http 404 https://registry.npmjs.org/access-request
26 verbose headers { date: 'Fri, 28 Nov 2014 12:39:15 GMT',
26 verbose headers   server: 'CouchDB/1.5.0 (Erlang OTP/R16B03)',
26 verbose headers   'content-type': 'application/json',
26 verbose headers   'cache-control': 'max-age=0',
26 verbose headers   'content-length': '52',
26 verbose headers   'accept-ranges': 'bytes',
26 verbose headers   via: '1.1 varnish',
26 verbose headers   age: '0',
26 verbose headers   'x-served-by': 'cache-fra1237-FRA',
26 verbose headers   'x-cache': 'MISS',
26 verbose headers   'x-cache-hits': '0',
26 verbose headers   'x-timer': 'S1417178354.947576,VS0,VE179',
26 verbose headers   'keep-alive': 'timeout=10, max=50',
26 verbose headers   connection: 'Keep-Alive' }
27 silly registry.get cb [ 404,
27 silly registry.get   { date: 'Fri, 28 Nov 2014 12:39:15 GMT',
27 silly registry.get     server: 'CouchDB/1.5.0 (Erlang OTP/R16B03)',
27 silly registry.get     'content-type': 'application/json',
27 silly registry.get     'cache-control': 'max-age=0',
27 silly registry.get     'content-length': '52',
27 silly registry.get     'accept-ranges': 'bytes',
27 silly registry.get     via: '1.1 varnish',
27 silly registry.get     age: '0',
27 silly registry.get     'x-served-by': 'cache-fra1237-FRA',
27 silly registry.get     'x-cache': 'MISS',
27 silly registry.get     'x-cache-hits': '0',
27 silly registry.get     'x-timer': 'S1417178354.947576,VS0,VE179',
27 silly registry.get     'keep-alive': 'timeout=10, max=50',
27 silly registry.get     connection: 'Keep-Alive' } ]
28 silly lockFile a95082a9-access-request access-request@*
29 silly lockFile a95082a9-access-request access-request@*
30 verbose stack Error: 404 Not Found: access-request
30 verbose stack     at RegClient.<anonymous> (/Users/kristianmandrup/.nvm/v0.10.32/lib/node_modules/npm/node_modules/npm-registry-client/lib/request.js:259:14)
30 verbose stack     at Request._callback (/Users/kristianmandrup/.nvm/v0.10.32/lib/node_modules/npm/node_modules/npm-registry-client/lib/request.js:198:65)
30 verbose stack     at Request.self.callback (/Users/kristianmandrup/.nvm/v0.10.32/lib/node_modules/npm/node_modules/request/request.js:236:22)
30 verbose stack     at Request.emit (events.js:98:17)
30 verbose stack     at Request.<anonymous> (/Users/kristianmandrup/.nvm/v0.10.32/lib/node_modules/npm/node_modules/request/request.js:1142:14)
30 verbose stack     at Request.emit (events.js:117:20)
30 verbose stack     at IncomingMessage.<anonymous> (/Users/kristianmandrup/.nvm/v0.10.32/lib/node_modules/npm/node_modules/request/request.js:1096:12)
30 verbose stack     at IncomingMessage.emit (events.js:117:20)
30 verbose stack     at _stream_readable.js:943:16
30 verbose stack     at process._tickCallback (node.js:419:13)
31 verbose statusCode 404
32 verbose pkgid access-request
33 verbose cwd /Users/kristianmandrup/my-projects/devs/permit-rules
34 error Darwin 14.0.0
35 error argv "node" "/Users/kristianmandrup/.nvm/v0.10.32/bin/npm" "link" "access-request"
36 error node v0.10.32
37 error npm  v2.0.0
38 error code E404
39 error 404 Not Found: access-request
39 error 404
39 error 404 'access-request' is not in the npm registry.
39 error 404 You should bug the author to publish it (or use the name yourself!)
39 error 404
39 error 404 Note that you can also install from a
39 error 404 tarball, folder, http url, or git url.
40 verbose exit [ 1, true ]
